<?xml version="1.0" encoding="UTF-8" standalone="no"?>
<svg
   version="1.0"
   width="800pt"
   height="398pt"
   viewBox="0 0 800 398"
   preserveAspectRatio="xMidYMid meet"
   id="svg10"
   sodipodi:docname="stan-logo.svg"
   inkscape:version="1.1.2 (0a00cf5339, 2022-02-04, custom)"
   xmlns:inkscape="http://www.inkscape.org/namespaces/inkscape"
   xmlns:sodipodi="http://sodipodi.sourceforge.net/DTD/sodipodi-0.dtd"
   xmlns="http://www.w3.org/2000/svg"
   xmlns:svg="http://www.w3.org/2000/svg">
  <defs
     id="defs14">
    <marker
       style="overflow:visible"
       id="Arrow1Lstart"
       refX="0"
       refY="0"
       orient="auto"
       inkscape:stockid="Arrow1Lstart"
       inkscape:isstock="true">
      <path
         transform="matrix(0.8,0,0,0.8,10,0)"
         style="fill:context-stroke;fill-rule:evenodd;stroke:context-stroke;stroke-width:1pt"
         d="M 0,0 5,-5 -12.5,0 5,5 Z"
         id="path2213" />
    </marker>
    <clipPath
       clipPathUnits="userSpaceOnUse"
       id="clipPath3789">
      <g
         inkscape:label="Clip"
         id="use3791"
         style="fill:#20f641;fill-opacity:1">
        <g
           transform="matrix(0.1,0,0,-0.1,0,398)"
           fill="#000000"
           stroke="none"
           id="g898"
           style="fill:#20f641;fill-opacity:1">
          <path
             d="M 1320,3799 C 923,3755 537,3598 349,3403 169,3217 69,2992 39,2709 c -21,-199 15,-416 97,-587 68,-140 238,-284 460,-388 145,-68 417,-155 673,-214 342,-80 428,-116 471,-200 49,-95 17,-191 -79,-239 -120,-61 -384,-59 -625,4 -178,46 -410,149 -594,263 -55,34 -84,47 -87,39 -3,-6 -66,-223 -140,-482 C 140,646 77,428 74,419 66,392 320,283 537,219 c 268,-78 478,-109 780,-116 604,-14 984,97 1273,374 132,125 223,261 284,425 l 23,62 13,-87 c 42,-297 216,-544 475,-674 74,-38 195,-76 295,-94 114,-21 507,-18 630,4 138,26 302,70 416,112 121,45 325,148 417,210 37,25 70,45 72,45 3,0 37,-33 77,-73 202,-203 470,-306 799,-307 227,0 425,53 577,154 65,43 187,160 210,201 6,11 12,18 14,15 2,-3 16,-31 32,-63 54,-107 173,-204 313,-252 135,-47 235,-58 488,-52 288,7 436,29 558,82 13,5 17,2 17,-14 v -21 h 590 590 v 835 836 l 77,37 c 66,31 89,37 163,40 124,6 190,-15 252,-78 36,-37 52,-65 67,-115 20,-65 21,-88 21,-811 V 150 h 580 580 v 918 c 0,872 -1,924 -20,1028 -39,217 -89,353 -185,500 -177,271 -410,385 -790,385 -285,0 -497,-62 -679,-200 l -66,-50 v 99 100 h -590 -590 l -2,-907 -3,-908 -50,-12 c -56,-14 -170,-19 -203,-9 -11,4 -30,26 -41,50 -21,42 -21,53 -21,914 v 872 h -590 -590 v -120 -120 l -72,61 c -204,172 -378,227 -683,216 -188,-6 -303,-34 -461,-112 -136,-66 -241,-144 -356,-264 -178,-184 -274,-373 -335,-660 -25,-117 -27,-143 -28,-375 v -248 l -110,-54 c -342,-166 -580,-175 -665,-24 l -25,45 -3,378 -3,377 h 391 390 v 383 c 0,210 3,412 7,450 l 6,67 h -404 -403 l 39,-40 39,-40 h -572 -572 v 325 325 h 535 535 v 55 55 h -585 -585 l -2,-952 -3,-953 -35,65 c -64,119 -236,269 -433,379 -157,87 -355,161 -695,260 -362,106 -444,141 -483,204 -23,39 -25,97 -3,142 14,30 67,75 104,88 8,3 -245,6 -564,6 l -578,1 6,31 c 9,47 87,207 137,280 124,185 310,318 589,422 458,171 1043,166 1579,-13 49,-17 92,-30 95,-30 3,0 6,13 6,29 0,28 -5,32 -77,59 -228,88 -478,146 -732,172 -119,12 -362,11 -471,-1 z m 9250,-937 c 25,-7 -55.896,22.6112 -257.896,22.6112 -157,0 -311.592,-41.6286 -306.592,-38.6286 C 10071.918,2854.849 10491,2884 10570,2862 Z m -4199.045,-11.1449 c 29,-6 -35.8147,11.8668 -175.955,17.4729 -122.6456,4.9062 -199.4585,-15.397 -180.4585,-11.397 48,10 300.4135,2.9241 356.4135,-6.0759 z M 6543,1960 c 83,-12 168,-41 219,-75 l 38,-25 v -323 -322 l -43,-27 c -77,-48 -179,-73 -303,-73 -107,0 -112,1 -185,37 -40,21 -89,51 -106,68 -74,70 -113,177 -113,310 0,136 36,234 118,322 93,99 207,132 375,108 z"
             id="path892"
             style="fill:#20f641;fill-opacity:1"
             sodipodi:nodetypes="ccccccccccccccscccccccccsccccsccccscccccccccscccsccscccccccccccscccccccccccccccccccsccccccccccccccccccccccccccccccssccccscccsccccccccsccscc" />
          <path
             d="m 1905,2820 c 193,-50 411,-140 585,-240 56,-33 105,-60 107,-60 1,0 3,74 3,165 v 165 h -402 l -403,-1 z"
             id="path894"
             style="fill:#20f641;fill-opacity:1" />
          <path
             d="m 11684,1081 c -206,-59 -314,-226 -314,-484 0,-128 22,-209 79,-289 94,-130 287,-195 504,-168 197,24 309,97 381,250 29,61 31,73 34,200 3,118 1,144 -18,200 -69,210 -231,311 -495,309 -73,0 -131,-6 -171,-18 z"
             id="path896"
             style="fill:#20f641;fill-opacity:1" />
        </g>
        <rect
           style="fill:#20f641;fill-opacity:1;stroke:#000000;stroke-width:0;stroke-miterlimit:4;stroke-dasharray:none;stroke-dashoffset:0;stroke-opacity:0"
           id="rect900"
           width="116.99998"
           height="84.157761"
           x="288"
           y="37"
           ry="0" />
        <rect
           style="fill:#20f641;fill-opacity:1;stroke:#000000;stroke-width:0;stroke-miterlimit:4;stroke-dasharray:none;stroke-dashoffset:0;stroke-opacity:0"
           id="rect902"
           width="106.99998"
           height="74.112595"
           x="349.30713"
           y="105.15524"
           ry="0" />
        <path
           style="fill:#20f641;fill-opacity:1;stroke:#000000;stroke-width:0;stroke-linecap:butt;stroke-linejoin:miter;stroke-miterlimit:4;stroke-dasharray:none;stroke-opacity:1"
           d="m 260,109.04751 -0.18852,-66.337926 -62.25068,-17.515321 -81.36979,2.95547 -73.172645,31.089611 -29.025542,41.935446 1.874318,17.39382 116.454359,-4.68062 6.01184,-1.8829 7.43636,-1.10955 6.89601,-0.57919 9.14818,0.23823 L 179.5,113.1 260,113 l 0.0336,8.65957"
           id="path904"
           sodipodi:nodetypes="ccccccccccccccc" />
      </g>
    </clipPath>
  </defs>
  <sodipodi:namedview
     id="namedview12"
     pagecolor="#2b2b2b"
     bordercolor="#666666"
     borderopacity="1.0"
     inkscape:pageshadow="2"
     inkscape:pageopacity="0"
     inkscape:pagecheckerboard="false"
     inkscape:document-units="pt"
     showgrid="false"
     inkscape:zoom="0.50676937"
     inkscape:cx="953.09628"
     inkscape:cy="403.53662"
     inkscape:window-width="2560"
     inkscape:window-height="1370"
     inkscape:window-x="0"
     inkscape:window-y="0"
     inkscape:window-maximized="1"
     inkscape:current-layer="svg10" />
  <g
     inkscape:label="Clip"
     id="g3785-3"
     style="fill:#ffffff;fill-opacity:1"
     transform="matrix(0.6444915,0,0,0.70863128,0.34251938,55.264211)">
    <g
       transform="matrix(0.1,0,0,-0.1,0,398)"
       fill="#000000"
       stroke="none"
       id="g8-6"
       style="fill:#ffffff;fill-opacity:1">
      <path
         d="M 1320,3799 C 923,3755 537,3598 349,3403 169,3217 69,2992 39,2709 c -21,-199 15,-416 97,-587 68,-140 238,-284 460,-388 145,-68 417,-155 673,-214 342,-80 428,-116 471,-200 49,-95 17,-191 -79,-239 -120,-61 -384,-59 -625,4 -178,46 -410,149 -594,263 -55,34 -84,47 -87,39 -3,-6 -66,-223 -140,-482 C 140,646 77,428 74,419 66,392 320,283 537,219 c 268,-78 478,-109 780,-116 604,-14 984,97 1273,374 132,125 223,261 284,425 l 23,62 13,-87 c 42,-297 216,-544 475,-674 74,-38 195,-76 295,-94 114,-21 507,-18 630,4 138,26 302,70 416,112 121,45 325,148 417,210 37,25 70,45 72,45 3,0 37,-33 77,-73 202,-203 470,-306 799,-307 227,0 425,53 577,154 65,43 187,160 210,201 6,11 12,18 14,15 2,-3 16,-31 32,-63 54,-107 173,-204 313,-252 135,-47 235,-58 488,-52 288,7 436,29 558,82 13,5 17,2 17,-14 v -21 h 590 590 v 835 836 l 77,37 c 66,31 89,37 163,40 124,6 190,-15 252,-78 36,-37 52,-65 67,-115 20,-65 21,-88 21,-811 V 150 h 580 580 v 918 c 0,872 -1,924 -20,1028 -39,217 -89,353 -185,500 -177,271 -410,385 -790,385 -285,0 -497,-62 -679,-200 l -66,-50 v 99 100 h -590 -590 l -2,-907 -3,-908 -50,-12 c -56,-14 -170,-19 -203,-9 -11,4 -30,26 -41,50 -21,42 -21,53 -21,914 v 872 h -590 -590 v -120 -120 l -72,61 c -204,172 -378,227 -683,216 -188,-6 -303,-34 -461,-112 -136,-66 -241,-144 -356,-264 -178,-184 -274,-373 -335,-660 -25,-117 -27,-143 -28,-375 v -248 l -110,-54 c -342,-166 -580,-175 -665,-24 l -25,45 -3,378 -3,377 h 391 390 v 383 c 0,210 3,412 7,450 l 6,67 h -404 -403 l 39,-40 39,-40 h -572 -572 v 325 325 h 535 535 v 55 55 h -585 -585 l -2,-952 -3,-953 -35,65 c -64,119 -236,269 -433,379 -157,87 -355,161 -695,260 -362,106 -444,141 -483,204 -23,39 -25,97 -3,142 14,30 67,75 104,88 8,3 -245,6 -564,6 l -578,1 6,31 c 9,47 87,207 137,280 124,185 310,318 589,422 458,171 1043,166 1579,-13 49,-17 92,-30 95,-30 3,0 6,13 6,29 0,28 -5,32 -77,59 -228,88 -478,146 -732,172 -119,12 -362,11 -471,-1 z m 9250,-937 c 25,-7 -55.896,22.6112 -257.896,22.6112 -157,0 -311.592,-41.6286 -306.592,-38.6286 C 10071.918,2854.849 10491,2884 10570,2862 Z m -4199.045,-11.1449 c 29,-6 -35.8147,11.8668 -175.955,17.4729 -122.6456,4.9062 -199.4585,-15.397 -180.4585,-11.397 48,10 300.4135,2.9241 356.4135,-6.0759 z M 6543,1960 c 83,-12 168,-41 219,-75 l 38,-25 v -323 -322 l -43,-27 c -77,-48 -179,-73 -303,-73 -107,0 -112,1 -185,37 -40,21 -89,51 -106,68 -74,70 -113,177 -113,310 0,136 36,234 118,322 93,99 207,132 375,108 z"
         id="path2-7"
         style="fill:#ffffff;fill-opacity:1"
         sodipodi:nodetypes="ccccccccccccccscccccccccsccccsccccscccccccccscccsccscccccccccccscccccccccccccccccccsccccccccccccccccccccccccccccccssccccscccsccccccccsccscc" />
      <path
         d="m 1905,2820 c 193,-50 411,-140 585,-240 56,-33 105,-60 107,-60 1,0 3,74 3,165 v 165 L 2191.3589,2909.8477 1795,2849 Z"
         id="path4-5"
         style="fill:#ffffff;fill-opacity:1"
         sodipodi:nodetypes="ccsscccc" />
      <path
         d="m 11684,1081 c -206,-59 -314,-226 -314,-484 0,-128 22,-209 79,-289 94,-130 287,-195 504,-168 197,24 309,97 381,250 29,61 31,73 34,200 3,118 1,144 -18,200 -69,210 -231,311 -495,309 -73,0 -131,-6 -171,-18 z"
         id="path6-3"
         style="fill:#ffffff;fill-opacity:1" />
    </g>
    <rect
       style="fill:#ffffff;fill-opacity:1;stroke:#000000;stroke-width:0;stroke-miterlimit:4;stroke-dasharray:none;stroke-dashoffset:0;stroke-opacity:0"
       id="rect1879-5"
       width="116.99998"
       height="84.157761"
       x="288"
       y="37"
       ry="0" />
    <rect
       style="fill:#ffffff;fill-opacity:1;stroke:#000000;stroke-width:0;stroke-miterlimit:4;stroke-dasharray:none;stroke-dashoffset:0;stroke-opacity:0"
       id="rect1879-3-6"
       width="106.99998"
       height="74.112595"
       x="349.30713"
       y="105.15524"
       ry="0" />
    <path
       style="fill:#ffffff;fill-opacity:1;stroke:#000000;stroke-width:0;stroke-linecap:butt;stroke-linejoin:miter;stroke-miterlimit:4;stroke-dasharray:none;stroke-opacity:1"
       d="m 260,109.04751 -0.18852,-66.337926 -62.25068,-17.515321 -81.36979,2.95547 -73.172645,31.089611 -29.025542,41.935446 1.874318,17.39382 116.454359,-4.68062 6.01184,-1.8829 7.43636,-1.10955 6.89601,-0.57919 9.14818,0.23823 L 179.5,113.1 260,113 l 0.0336,8.65957"
       id="path2709-2"
       sodipodi:nodetypes="ccccccccccccccc" />
  </g>
</svg>
